{
	"id": "e5d02262-dd83-47ea-a5f4-fc64005a5897",
	"name": "Koszyk Azure",
	"values": [
		{
			"key": "host",
			"value": "https://shopwsb.azurewebsites.net",
			"enabled": true
		},
		{
			"key": "id",
			"value": "3",
			"enabled": true
		},
		{
			"key": "token",
			"value": "YmFydGVrMkBxd2VydHk=",
			"description": {
				"content": "",
				"type": "text/plain"
			},
			"enabled": true
		}
	],
	"_postman_variable_scope": "environment",
	"_postman_exported_at": "2019-01-05T18:52:59.339Z",
	"_postman_exported_using": "Postman/6.5.2"
}